[
  {
    "id": 1,
    "name": "Acaste",
    "link": "https://fr.wikipedia.org/wiki/Acaste"
  },
  {
    "id": 2,
    "name": "Actor fils d'Hippase",
    "link": "https://fr.wikipedia.org/w/index.php?title=Actor_fils_d%27Hippase&amp;action=edit&amp;redlink=1"
  },
  {
    "id": 3,
    "name": "Admète",
    "link": "https://fr.wikipedia.org/wiki/Adm%C3%A8te"
  },
  {
    "id": 4,
    "name": "Amphiaraos",
    "link": "https://fr.wikipedia.org/wiki/Amphiaraos"
  },
  {
    "id": 5,
    "name": "Amphidamas",
    "link": "https://fr.wikipedia.org/wiki/Amphidamas"
  },
  {
    "id": 6,
    "name": "Amphion fils d'Hypérasios",
    "link": "https://fr.wikipedia.org/w/index.php?title=Amphion_fils_d%27Hyp%C3%A9rasios&amp;action=edit&amp;redlink=1"
  },
  {
    "id": 7,
    "name": "Ancée fils de Lycurgue",
    "link": "https://fr.wikipedia.org/wiki/Anc%C3%A9e_fils_de_Lycurgue"
  },
  {
    "id": 8,
    "name": "Ancée fils de Poséidon",
    "link": "https://fr.wikipedia.org/wiki/Anc%C3%A9e_fils_de_Pos%C3%A9idon"
  },
  {
    "id": 9,
    "name": "Argos fils d'Arestor",
    "link": "https://fr.wikipedia.org/wiki/Argos_fils_d%27Arestor_(argonaute)"
  },
  {
    "id": 10,
    "name": "Argos fils de Phrixos",
    "link": "https://fr.wikipedia.org/wiki/Argos_fils_de_Phrixos"
  },
  {
    "id": 11,
    "name": "Argos fils de Polybe",
    "link": "https://fr.wikipedia.org/w/index.php?title=Argos_fils_de_Polybe&amp;action=edit&amp;redlink=1"
  },
  {
    "id": 12,
    "name": "Arios fils de Bias",
    "link": "https://fr.wikipedia.org/w/index.php?title=Arios_fils_de_Bias&amp;action=edit&amp;redlink=1"
  },
  {
    "id": 13,
    "name": "Ascalaphe",
    "link": "https://fr.wikipedia.org/wiki/Ascalaphe_et_Ialm%C3%A8ne"
  },
  {
    "id": 14,
    "name": "Asclépios",
    "link": "https://fr.wikipedia.org/wiki/Ascl%C3%A9pios"
  },
  {
    "id": 15,
    "name": "Astérion de Pellène",
    "link": "https://fr.wikipedia.org/w/index.php?title=Ast%C3%A9rion_(Pell%C3%A8ne)&amp;action=edit&amp;redlink=1"
  },
  {
    "id": 16,
    "name": "Astérios de Pirésie",
    "link": "https://fr.wikipedia.org/w/index.php?title=Ast%C3%A9rios_(Pir%C3%A9sie)&amp;action=edit&amp;redlink=1"
  },
  {
    "id": 17,
    "name": "Atalante",
    "link": "https://fr.wikipedia.org/wiki/Atalante"
  },
  {
    "id": 18,
    "name": "Augias",
    "link": "https://fr.wikipedia.org/wiki/Augias"
  },
  {
    "id": 19,
    "name": "Autolycos",
    "link": "https://fr.wikipedia.org/wiki/Autolycos_(mythologie)"
  },
  {
    "id": 20,
    "name": "Boutès fils de Téléon",
    "link": "https://fr.wikipedia.org/wiki/Bout%C3%A8s_fils_de_T%C3%A9l%C3%A9on"
  },
  {
    "id": 21,
    "name": "Calaïs",
    "link": "https://fr.wikipedia.org/wiki/Bor%C3%A9ades"
  },
  {
    "id": 22,
    "name": "Canthos",
    "link": "https://fr.wikipedia.org/w/index.php?title=Canthos&amp;action=edit&amp;redlink=1"
  },
  {
    "id": 23,
    "name": "Castor",
    "link": "https://fr.wikipedia.org/wiki/Castor_et_Pollux"
  },
  {
    "id": 24,
    "name": "Cénée",
    "link": "https://fr.wikipedia.org/wiki/C%C3%A9n%C3%A9e"
  },
  {
    "id": 25,
    "name": "Céphée de Tégée",
    "link": "https://fr.wikipedia.org/wiki/C%C3%A9ph%C3%A9e_(Arcadie)"
  },
  {
    "id": 26,
    "name": "Clyménos",
    "link": "https://fr.wikipedia.org/wiki/Clym%C3%A9nos"
  },
  {
    "id": 27,
    "name": "Clytios fils d'Eurytos",
    "link": "https://fr.wikipedia.org/wiki/Clytios_fils_d%27Eurytos"
  },
  {
    "id": 28,
    "name": "Coronos fils de Cénée",
    "link": "https://fr.wikipedia.org/w/index.php?title=Coronos_fils_de_C%C3%A9n%C3%A9e&amp;action=edit&amp;redlink=1"
  },
  {
    "id": 29,
    "name": "Deucalion fils d'Hypérasios",
    "link": "https://fr.wikipedia.org/w/index.php?title=Deucalion_fils_d%27Hyp%C3%A9rasios&amp;action=edit&amp;redlink=1"
  },
  {
    "id": 30,
    "name": "Deucalion fils de Minos",
    "link": "https://fr.wikipedia.org/wiki/Deucalion_fils_de_Minos class=mw-redirect"
  },
  {
    "id": 31,
    "name": "Échion fils d'Hermès",
    "link": "https://fr.wikipedia.org/wiki/%C3%89chion_fils_d%27Herm%C3%A8s"
  },
  {
    "id": 32,
    "name": "Erginos",
    "link": "https://fr.wikipedia.org/w/index.php?title=Erginos_(argonaute)&amp;action=edit&amp;redlink=1"
  },
  {
    "id": 33,
    "name": "Éribotès",
    "link": "https://fr.wikipedia.org/w/index.php?title=%C3%89ribot%C3%A8s&amp;action=edit&amp;redlink=1"
  },
  {
    "id": 34,
    "name": "Éthalidès fils d'Hermès",
    "link": "https://fr.wikipedia.org/w/index.php?title=%C3%89thalid%C3%A8s_fils_d%27Herm%C3%A8s&amp;action=edit&amp;redlink=1"
  },
  {
    "id": 35,
    "name": "Euphémos fils de Poséidon",
    "link": "https://fr.wikipedia.org/wiki/Euph%C3%A9mos_fils_de_Pos%C3%A9idon"
  },
  {
    "id": 36,
    "name": "Euryale fils de Mécistée",
    "link": "https://fr.wikipedia.org/wiki/Euryale_(Argos)"
  },
  {
    "id": 37,
    "name": "Eurydamas fils de Démonassa",
    "link": "https://fr.wikipedia.org/w/index.php?title=Eurydamas_fils_de_D%C3%A9monassa&amp;action=edit&amp;redlink=1"
  },
  {
    "id": 38,
    "name": "Eurymédon fils de Dionysos",
    "link": "https://fr.wikipedia.org/w/index.php?title=Eurym%C3%A9don_fils_de_Dionysos&amp;action=edit&amp;redlink=1"
  },
  {
    "id": 39,
    "name": "Eurytion de Phthie",
    "link": "https://fr.wikipedia.org/wiki/Eurytion_(Phthie)"
  },
  {
    "id": 40,
    "name": "Eurytos fils d'Hermès",
    "link": "https://fr.wikipedia.org/w/index.php?title=Eurytos_fils_d%27Herm%C3%A8s&amp;action=edit&amp;redlink=1"
  },
  {
    "id": 41,
    "name": "Héraclès",
    "link": "https://fr.wikipedia.org/wiki/H%C3%A9racl%C3%A8s"
  },
  {
    "id": 42,
    "name": "Hippalcimos fils de Pélops",
    "link": "https://fr.wikipedia.org/w/index.php?title=Hippalcimos_fils_de_P%C3%A9lops&amp;action=edit&amp;redlink=1"
  },
  {
    "id": 43,
    "name": "Hylas",
    "link": "https://fr.wikipedia.org/wiki/Hylas"
  },
  {
    "id": 44,
    "name": "Ialmène",
    "link": "https://fr.wikipedia.org/wiki/Ascalaphe_et_Ialm%C3%A8ne"
  },
  {
    "id": 45,
    "name": "Idas",
    "link": "https://fr.wikipedia.org/wiki/Idas_et_Lync%C3%A9e"
  },
  {
    "id": 46,
    "name": "Idmon",
    "link": "https://fr.wikipedia.org/wiki/Idmon"
  },
  {
    "id": 47,
    "name": "Iolaos",
    "link": "https://fr.wikipedia.org/wiki/Iolaos"
  },
  {
    "id": 48,
    "name": "Iphiclès",
    "link": "https://fr.wikipedia.org/wiki/Iphicl%C3%A8s"
  },
  {
    "id": 49,
    "name": "Iphiclos fils de Clymène",
    "link": "https://fr.wikipedia.org/w/index.php?title=Iphiclos_fils_de_Clym%C3%A8ne&amp;action=edit&amp;redlink=1"
  },
  {
    "id": 50,
    "name": "Iphiclos fils de Thestios",
    "link": "https://fr.wikipedia.org/w/index.php?title=Iphiclos_fils_de_Thestios&amp;action=edit&amp;redlink=1"
  },
  {
    "id": 51,
    "name": "Iphis",
    "link": "https://fr.wikipedia.org/wiki/Iphis"
  },
  {
    "id": 52,
    "name": "Iphitos d'Œchalie",
    "link": "https://fr.wikipedia.org/wiki/Iphitos_fils_d%27Eurytos"
  },
  {
    "id": 53,
    "name": "Iphitos de Phocide",
    "link": "https://fr.wikipedia.org/w/index.php?title=Iphitos_(Phocide)&amp;action=edit&amp;redlink=1"
  },
  {
    "id": 54,
    "name": "Iphitos (frère d'Eurysthée)",
    "link": "https://fr.wikipedia.org/w/index.php?title=Iphitos_(fr%C3%A8re_d%27Eurysth%C3%A9e)&amp;action=edit&amp;redlink=1"
  },
  {
    "id": 55,
    "name": "Jason",
    "link": "https://fr.wikipedia.org/wiki/Jason"
  },
  {
    "id": 56,
    "name": "Lacoon",
    "link": "https://fr.wikipedia.org/w/index.php?title=Lacoon&amp;action=edit&amp;redlink=1"
  },
  {
    "id": 57,
    "name": "Laërte",
    "link": "https://fr.wikipedia.org/wiki/La%C3%ABrte"
  },
  {
    "id": 58,
    "name": "Léitos",
    "link": "https://fr.wikipedia.org/w/index.php?title=L%C3%A9itos&amp;action=edit&amp;redlink=1"
  },
  {
    "id": 59,
    "name": "Léodocos",
    "link": "https://fr.wikipedia.org/w/index.php?title=L%C3%A9odocos&amp;action=edit&amp;redlink=1"
  },
  {
    "id": 60,
    "name": "Lyncée",
    "link": "https://fr.wikipedia.org/wiki/Idas_et_Lync%C3%A9e"
  },
  {
    "id": 61,
    "name": "Méléagre",
    "link": "https://fr.wikipedia.org/wiki/M%C3%A9l%C3%A9agre_(mythologie)"
  },
  {
    "id": 62,
    "name": "Ménétios fils d'Actor",
    "link": "https://fr.wikipedia.org/wiki/M%C3%A9n%C3%A9tios_fils_d%27Actor"
  },
  {
    "id": 63,
    "name": "Mopsos fils d'Ampyx",
    "link": "https://fr.wikipedia.org/wiki/Mopsos_fils_d%27Ampyx"
  },
  {
    "id": 64,
    "name": "Nauplios fils de Clytonée",
    "link": "https://fr.wikipedia.org/wiki/Nauplios_fils_de_Clyton%C3%A9e"
  },
  {
    "id": 65,
    "name": "Nélée",
    "link": "https://fr.wikipedia.org/wiki/N%C3%A9l%C3%A9e"
  },
  {
    "id": 66,
    "name": "Nestor",
    "link": "https://fr.wikipedia.org/wiki/Nestor"
  },
  {
    "id": 67,
    "name": "Oïlée",
    "link": "https://fr.wikipedia.org/wiki/O%C3%AFl%C3%A9e"
  },
  {
    "id": 68,
    "name": "Orphée",
    "link": "https://fr.wikipedia.org/wiki/Orph%C3%A9e"
  },
  {
    "id": 69,
    "name": "Palémon",
    "link": "https://fr.wikipedia.org/wiki/Pal%C3%A9mon"
  },
  {
    "id": 70,
    "name": "Pélée",
    "link": "https://fr.wikipedia.org/wiki/P%C3%A9l%C3%A9e"
  },
  {
    "id": 71,
    "name": "Pénélée",
    "link": "https://fr.wikipedia.org/wiki/P%C3%A9n%C3%A9l%C3%A9e"
  },
  {
    "id": 72,
    "name": "Périclyménos fils de Nélée",
    "link": "https://fr.wikipedia.org/w/index.php?title=P%C3%A9riclym%C3%A9nos_fils_de_N%C3%A9l%C3%A9e&amp;action=edit&amp;redlink=1"
  },
  {
    "id": 73,
    "name": "Phanos",
    "link": "https://fr.wikipedia.org/w/index.php?title=Phanos&amp;action=edit&amp;redlink=1"
  },
  {
    "id": 74,
    "name": "Phalère",
    "link": "https://fr.wikipedia.org/w/index.php?title=Phal%C3%A8re_(mythologie)&amp;action=edit&amp;redlink=1"
  },
  {
    "id": 75,
    "name": "Philoctète",
    "link": "https://fr.wikipedia.org/wiki/Philoct%C3%A8te"
  },
  {
    "id": 76,
    "name": "Phlias",
    "link": "https://fr.wikipedia.org/w/index.php?title=Phlias&amp;action=edit&amp;redlink=1"
  },
  {
    "id": 77,
    "name": "Phocos fils de Cénée",
    "link": "https://fr.wikipedia.org/w/index.php?title=Phocos_fils_de_C%C3%A9n%C3%A9e&amp;action=edit&amp;redlink=1"
  },
  {
    "id": 78,
    "name": "Pirithoos",
    "link": "https://fr.wikipedia.org/wiki/Pirithoos"
  },
  {
    "id": 79,
    "name": "Péas",
    "link": "https://fr.wikipedia.org/wiki/P%C3%A9as_(mythologie)"
  },
  {
    "id": 80,
    "name": "Pollux",
    "link": "https://fr.wikipedia.org/wiki/Castor_et_Pollux"
  },
  {
    "id": 81,
    "name": "Polyphème fils d'Élatos",
    "link": "https://fr.wikipedia.org/wiki/Polyph%C3%A8me_fils_d%27%C3%89latos"
  },
  {
    "id": 82,
    "name": "Priasos fils de Cénée",
    "link": "https://fr.wikipedia.org/w/index.php?title=Priasos_fils_de_C%C3%A9n%C3%A9e&amp;action=edit&amp;redlink=1"
  },
  {
    "id": 83,
    "name": "Staphylos fils d'Ariane",
    "link": "https://fr.wikipedia.org/w/index.php?title=Staphylos_fils_d%27Ariane&amp;action=edit&amp;redlink=1"
  },
  {
    "id": 84,
    "name": "Talaos",
    "link": "https://fr.wikipedia.org/wiki/Talaos"
  },
  {
    "id": 85,
    "name": "Télamon",
    "link": "https://fr.wikipedia.org/wiki/T%C3%A9lamon"
  },
  {
    "id": 86,
    "name": "Thésée",
    "link": "https://fr.wikipedia.org/wiki/Th%C3%A9s%C3%A9e"
  },
  {
    "id": 87,
    "name": "Tiphys",
    "link": "https://fr.wikipedia.org/wiki/Tiphys"
  },
  {
    "id": 88,
    "name": "Tydée",
    "link": "https://fr.wikipedia.org/wiki/Tyd%C3%A9e"
  },
  {
    "id": 89,
    "name": "Zétès",
    "link": "https://fr.wikipedia.org/wiki/Bor%C3%A9ades"
  }
]
